462,412
244,394
625,618
873,372
288,276
580,225
868,114
982,610
673,486
778,721
867,582
889,748
273,594
471,309
1060,765
774,465
702,639
472,774
996,490
766,778
438,624
717,348
390,498
921,693
928,223
789,693
508,145
369,687
607,325
807,271
573,756
771,607
415,238
370,151
555,463
736,156
670,790
181,495
1129,627
540,601
994,355
889,487
