536,1320
988,1056
764,1104
616,752
828,1160
480,884
532,1236
160,140
840,1016
1000,1588
448,760
152,428
1980,2604
1496,1612
1216,1968
980,1768
364,904
840,456
1336,2240
992,1448
356,1180
960,1344
228,800
780,1440
824,220
1192,1252
644,1716
440,1068
768,848
1424,2428
828,904
784,668
1824,2416
672,1080
704,1608
1784,2100
1668,2620
406,1269
672,1228
836,1956
428,1372
932,2136
568,1432
484,1468
552,424
868,780
476,180
528,1128
324,1060
728,1340
584,944
488,612
296,480
1200,1728
960,1204
1128,2216
536,1012
652,872
