1335,1113
1167,1647
933,126
177,87
624,117
996,1521
864,1491
462,99
1347,1629
585,1242
1683,81
1056,498
993,1317
558,1653
789,627
1611,348
150,471
1746,639
1566,615
789,1269
1347,1353
1185,1461
939,681
303,495
1137,78
591,975
885,1116
1644,204
375,1395
708,1113
261,1230
1236,399
1107,219
1392,462
1086,1119
477,483
399,1641
1425,252
1548,870
1176,1287
147,1401
369,642
1110,894
369,261
777,138
276,1590
1824,384
1383,927
384,999
525,1437
582,297
684,1452
687,777
1539,1014
387,1185
1605,471
165,996
642,552
1254,861
942,885
1449,93
789,948
1572,744
231,831
789,312
141,651
135,1248
1260,195
981,342
810,1674
852,471
168,273
1173,639
1380,672
489,765
